{
    "name": "Emprendimiento e Innovación",
    "image": "",
    "temas": [
      {
        "tema": "Introducción",
        "subtemas": [
            {
                "tema": "Legal",
                "url": "legal.html"
              },
              {
                "tema": "Presentación",
                "url": "presentacion.html"
              },
              {
                "tema": "Primer parcial",
                "url": "index.html"
              },
              {
                "tema": "Transversalidad de los aprendizajes",
                "url": "aprendizajes.html"
              },
              {
                "tema": "Proyecto formativo",
                "url": "proyecto_formativo.html"
              },
              {
                "tema": "Explora tu mundo",
                "url": "exp_mundo.html"
              },
              {
                "tema": "Evaluación diagnóstica",
                "url": "evaluacion_diagnostica.html"
              }
        ]
      },
      {
        "tema": "Construcción de una identidad de liderazgo sostenible",
        "subtemas": [
          {
            "tema": "Toma de conciencia del desarrollo sostenible",
            "url": "tema1.0.0.html"
          },
          {
            "tema": "Actividad 1",
            "url": "actividad1.html"
          },
          {
            "tema": "Actividad 2",
            "url": "actividad2.html"
          },
          {
            "tema": "Desarrollo de competencias emprendedoras",
            "url": "tema1.1.0.html"
          },
          {
            "tema": "Actividad 3",
            "url": "actividad3.html"
          },
          {
            "tema": "Actividad 4",
            "url": "actividad4.html"
          },
          {
            "tema": "Fomento a la lectura",
            "url": "tema1.1.0FL.html"
          },
          {
            "tema": "Actividad 5",
            "url": "actividad5.html"
          },
          {
            "tema": "Toma de conciencia del espíritu emprendedor",
            "url": "tema1.2.0.html"
          },
          {
            "tema": "Actividad 6",
            "url": "actividad6.html"
          },
          {
            "tema": "Desarrollo de un liderazgo sostenible",
            "url": "tema1.3.0.html"
          },
          {
            "tema": "Actividad 7",
            "url": "actividad7.html"
          },
          {
            "tema": "Actividad 8",
            "url": "actividad8.html"
          },
          {
            "tema": "Proyecto formativo",
            "url": "tema1.3.0PF.html"
          },
          {
            "tema": "DHS",
            "url": "tema1.3.0DHS.html"
          },
          {
            "tema": "Construcción de comunicación verbal",
            "url": "tema1.4.0.html"
          },
          {
            "tema": "Actividad 9",
            "url": "actividad9.html"
          },
          {
            "tema": "Actividad 10",
            "url": "actividad10.html"
          },
          {
            "tema": "Actividad 11",
            "url": "actividad11.html"
          },
          {
            "tema": "Construcción de comunicación no verbal",
            "url": "tema1.5.0.html"
          },
          {
            "tema": "Actividad 12",
            "url": "actividad12.html"
          },
          {
            "tema": "Actividad 13",
            "url": "actividad13.html"
          },
          {
            "tema": "Construcción de comunicación escrita en el campo profesional",
            "url": "tema1.6.0.html"
          },
          {
            "tema": "Actividad 14",
            "url": "actividad14.html"
          },
          {
            "tema": "Actividad 15",
            "url": "actividad15.html"
          },
          {
            "tema": "Evaluación formativa",
            "url": "tema1.6.0EF.html"
          },
          {
            "tema": "Proyecto formativo",
            "url": "tema1.6.0PF.html"
          },
          {
            "tema": "Orientate",
            "url": "tema1.6.0_orientate.html"
          },
          {
            "tema": "Vinculación de competencias y resultados de aprendizaje",
            "url": "tema1.6.0VCRA.html"
          },
          {
            "tema": "Evaluación sumativa",
            "url": "tema1.6.0ES.html"
          },
          {
            "tema": "Prueba tipo  planea",
            "url": "tema1.6.0PTP.html"
          }          
          
  
        ]
      }
  
    ]
  }